^D:\INFOTRAINING\SZKOLENIA\CPP-DP-2016-12-19\CREATIONAL\FACTORYMETHOD.THEORYCODE\CMAKEFILES\539780982B52BD5E15C76E670B018179\GENERATE.STAMP.RULE
D:\INFOTRAINING\SZKOLENIA\CPP-DP-2016-12-19\CREATIONAL\FACTORYMETHOD.THEORYCODE\CMAKEFILES\3.1.0\CMAKECCOMPILER.CMAKE
D:\INFOTRAINING\SZKOLENIA\CPP-DP-2016-12-19\CREATIONAL\FACTORYMETHOD.THEORYCODE\CMAKEFILES\3.1.0\CMAKECXXCOMPILER.CMAKE
D:\INFOTRAINING\SZKOLENIA\CPP-DP-2016-12-19\CREATIONAL\FACTORYMETHOD.THEORYCODE\CMAKEFILES\3.1.0\CMAKERCCOMPILER.CMAKE
D:\INFOTRAINING\SZKOLENIA\CPP-DP-2016-12-19\CREATIONAL\FACTORYMETHOD.THEORYCODE\CMAKEFILES\3.1.0\CMAKESYSTEM.CMAKE
D:\INFOTRAINING\SZKOLENIA\CPP-DP-2016-12-19\CREATIONAL\FACTORYMETHOD.THEORYCODE\CMAKELISTS.TXT
C:\DEV\CMAKE\SHARE\CMAKE-3.1\MODULES\CMAKECCOMPILER.CMAKE.IN
C:\DEV\CMAKE\SHARE\CMAKE-3.1\MODULES\CMAKECCOMPILERABI.C
C:\DEV\CMAKE\SHARE\CMAKE-3.1\MODULES\CMAKECINFORMATION.CMAKE
C:\DEV\CMAKE\SHARE\CMAKE-3.1\MODULES\CMAKECXXCOMPILER.CMAKE.IN
C:\DEV\CMAKE\SHARE\CMAKE-3.1\MODULES\CMAKECXXCOMPILERABI.CPP
C:\DEV\CMAKE\SHARE\CMAKE-3.1\MODULES\CMAKECXXINFORMATION.CMAKE
C:\DEV\CMAKE\SHARE\CMAKE-3.1\MODULES\CMAKECLDEPS.CMAKE
C:\DEV\CMAKE\SHARE\CMAKE-3.1\MODULES\CMAKECOMMONLANGUAGEINCLUDE.CMAKE
C:\DEV\CMAKE\SHARE\CMAKE-3.1\MODULES\CMAKECOMPILERIDDETECTION.CMAKE
C:\DEV\CMAKE\SHARE\CMAKE-3.1\MODULES\CMAKECONFIGURABLEFILE.IN
C:\DEV\CMAKE\SHARE\CMAKE-3.1\MODULES\CMAKEDETERMINECCOMPILER.CMAKE
C:\DEV\CMAKE\SHARE\CMAKE-3.1\MODULES\CMAKEDETERMINECXXCOMPILER.CMAKE
C:\DEV\CMAKE\SHARE\CMAKE-3.1\MODULES\CMAKEDETERMINECOMPILEFEATURES.CMAKE
C:\DEV\CMAKE\SHARE\CMAKE-3.1\MODULES\CMAKEDETERMINECOMPILER.CMAKE
C:\DEV\CMAKE\SHARE\CMAKE-3.1\MODULES\CMAKEDETERMINECOMPILERABI.CMAKE
C:\DEV\CMAKE\SHARE\CMAKE-3.1\MODULES\CMAKEDETERMINECOMPILERID.CMAKE
C:\DEV\CMAKE\SHARE\CMAKE-3.1\MODULES\CMAKEDETERMINERCCOMPILER.CMAKE
C:\DEV\CMAKE\SHARE\CMAKE-3.1\MODULES\CMAKEDETERMINESYSTEM.CMAKE
C:\DEV\CMAKE\SHARE\CMAKE-3.1\MODULES\CMAKEFINDBINUTILS.CMAKE
C:\DEV\CMAKE\SHARE\CMAKE-3.1\MODULES\CMAKEGENERICSYSTEM.CMAKE
C:\DEV\CMAKE\SHARE\CMAKE-3.1\MODULES\CMAKEPARSEARGUMENTS.CMAKE
C:\DEV\CMAKE\SHARE\CMAKE-3.1\MODULES\CMAKEPARSEIMPLICITLINKINFO.CMAKE
C:\DEV\CMAKE\SHARE\CMAKE-3.1\MODULES\CMAKERCCOMPILER.CMAKE.IN
C:\DEV\CMAKE\SHARE\CMAKE-3.1\MODULES\CMAKERCINFORMATION.CMAKE
C:\DEV\CMAKE\SHARE\CMAKE-3.1\MODULES\CMAKESYSTEM.CMAKE.IN
C:\DEV\CMAKE\SHARE\CMAKE-3.1\MODULES\CMAKESYSTEMSPECIFICINFORMATION.CMAKE
C:\DEV\CMAKE\SHARE\CMAKE-3.1\MODULES\CMAKESYSTEMSPECIFICINITIALIZE.CMAKE
C:\DEV\CMAKE\SHARE\CMAKE-3.1\MODULES\CMAKETESTCCOMPILER.CMAKE
C:\DEV\CMAKE\SHARE\CMAKE-3.1\MODULES\CMAKETESTCXXCOMPILER.CMAKE
C:\DEV\CMAKE\SHARE\CMAKE-3.1\MODULES\CMAKETESTCOMPILERCOMMON.CMAKE
C:\DEV\CMAKE\SHARE\CMAKE-3.1\MODULES\CMAKETESTRCCOMPILER.CMAKE
C:\DEV\CMAKE\SHARE\CMAKE-3.1\MODULES\CHECKINCLUDEFILES.CMAKE
C:\DEV\CMAKE\SHARE\CMAKE-3.1\MODULES\CHECKLIBRARYEXISTS.CMAKE
C:\DEV\CMAKE\SHARE\CMAKE-3.1\MODULES\CHECKSYMBOLEXISTS.CMAKE
C:\DEV\CMAKE\SHARE\CMAKE-3.1\MODULES\COMPILER\ADSP-DETERMINECOMPILER.CMAKE
C:\DEV\CMAKE\SHARE\CMAKE-3.1\MODULES\COMPILER\APPLECLANG-DETERMINECOMPILER.CMAKE
C:\DEV\CMAKE\SHARE\CMAKE-3.1\MODULES\COMPILER\BORLAND-DETERMINECOMPILER.CMAKE
C:\DEV\CMAKE\SHARE\CMAKE-3.1\MODULES\COMPILER\CLANG-DETERMINECOMPILER.CMAKE
C:\DEV\CMAKE\SHARE\CMAKE-3.1\MODULES\COMPILER\CLANG-DETERMINECOMPILERINTERNAL.CMAKE
C:\DEV\CMAKE\SHARE\CMAKE-3.1\MODULES\COMPILER\COMEAU-CXX-DETERMINECOMPILER.CMAKE
C:\DEV\CMAKE\SHARE\CMAKE-3.1\MODULES\COMPILER\COMPAQ-C-DETERMINECOMPILER.CMAKE
C:\DEV\CMAKE\SHARE\CMAKE-3.1\MODULES\COMPILER\COMPAQ-CXX-DETERMINECOMPILER.CMAKE
C:\DEV\CMAKE\SHARE\CMAKE-3.1\MODULES\COMPILER\CRAY-DETERMINECOMPILER.CMAKE
C:\DEV\CMAKE\SHARE\CMAKE-3.1\MODULES\COMPILER\EMBARCADERO-DETERMINECOMPILER.CMAKE
C:\DEV\CMAKE\SHARE\CMAKE-3.1\MODULES\COMPILER\FUJITSU-DETERMINECOMPILER.CMAKE
C:\DEV\CMAKE\SHARE\CMAKE-3.1\MODULES\COMPILER\GNU-DETERMINECOMPILER.CMAKE
C:\DEV\CMAKE\SHARE\CMAKE-3.1\MODULES\COMPILER\HP-C-DETERMINECOMPILER.CMAKE
C:\DEV\CMAKE\SHARE\CMAKE-3.1\MODULES\COMPILER\HP-CXX-DETERMINECOMPILER.CMAKE
C:\DEV\CMAKE\SHARE\CMAKE-3.1\MODULES\COMPILER\IAR-DETERMINECOMPILER.CMAKE
C:\DEV\CMAKE\SHARE\CMAKE-3.1\MODULES\COMPILER\IBMCPP-C-DETERMINEVERSIONINTERNAL.CMAKE
C:\DEV\CMAKE\SHARE\CMAKE-3.1\MODULES\COMPILER\IBMCPP-CXX-DETERMINEVERSIONINTERNAL.CMAKE
C:\DEV\CMAKE\SHARE\CMAKE-3.1\MODULES\COMPILER\INTEL-DETERMINECOMPILER.CMAKE
C:\DEV\CMAKE\SHARE\CMAKE-3.1\MODULES\COMPILER\MIPSPRO-DETERMINECOMPILER.CMAKE
C:\DEV\CMAKE\SHARE\CMAKE-3.1\MODULES\COMPILER\MSVC-DETERMINECOMPILER.CMAKE
C:\DEV\CMAKE\SHARE\CMAKE-3.1\MODULES\COMPILER\OPENWATCOM-DETERMINECOMPILER.CMAKE
C:\DEV\CMAKE\SHARE\CMAKE-3.1\MODULES\COMPILER\PGI-DETERMINECOMPILER.CMAKE
C:\DEV\CMAKE\SHARE\CMAKE-3.1\MODULES\COMPILER\PATHSCALE-DETERMINECOMPILER.CMAKE
C:\DEV\CMAKE\SHARE\CMAKE-3.1\MODULES\COMPILER\SCO-DETERMINECOMPILER.CMAKE
C:\DEV\CMAKE\SHARE\CMAKE-3.1\MODULES\COMPILER\SDCC-C-DETERMINECOMPILER.CMAKE
C:\DEV\CMAKE\SHARE\CMAKE-3.1\MODULES\COMPILER\SUNPRO-C-DETERMINECOMPILER.CMAKE
C:\DEV\CMAKE\SHARE\CMAKE-3.1\MODULES\COMPILER\SUNPRO-CXX-DETERMINECOMPILER.CMAKE
C:\DEV\CMAKE\SHARE\CMAKE-3.1\MODULES\COMPILER\TI-DETERMINECOMPILER.CMAKE
C:\DEV\CMAKE\SHARE\CMAKE-3.1\MODULES\COMPILER\TINYCC-C-DETERMINECOMPILER.CMAKE
C:\DEV\CMAKE\SHARE\CMAKE-3.1\MODULES\COMPILER\VISUALAGE-C-DETERMINECOMPILER.CMAKE
C:\DEV\CMAKE\SHARE\CMAKE-3.1\MODULES\COMPILER\VISUALAGE-CXX-DETERMINECOMPILER.CMAKE
C:\DEV\CMAKE\SHARE\CMAKE-3.1\MODULES\COMPILER\WATCOM-DETERMINECOMPILER.CMAKE
C:\DEV\CMAKE\SHARE\CMAKE-3.1\MODULES\COMPILER\XL-C-DETERMINECOMPILER.CMAKE
C:\DEV\CMAKE\SHARE\CMAKE-3.1\MODULES\COMPILER\XL-CXX-DETERMINECOMPILER.CMAKE
C:\DEV\CMAKE\SHARE\CMAKE-3.1\MODULES\COMPILER\ZOS-C-DETERMINECOMPILER.CMAKE
C:\DEV\CMAKE\SHARE\CMAKE-3.1\MODULES\COMPILER\ZOS-CXX-DETERMINECOMPILER.CMAKE
C:\DEV\CMAKE\SHARE\CMAKE-3.1\MODULES\COMPILERID\VS-10.VCXPROJ.IN
C:\DEV\CMAKE\SHARE\CMAKE-3.1\MODULES\FINDBOOST.CMAKE
C:\DEV\CMAKE\SHARE\CMAKE-3.1\MODULES\FINDPACKAGEHANDLESTANDARDARGS.CMAKE
C:\DEV\CMAKE\SHARE\CMAKE-3.1\MODULES\FINDPACKAGEMESSAGE.CMAKE
C:\DEV\CMAKE\SHARE\CMAKE-3.1\MODULES\FINDTHREADS.CMAKE
C:\DEV\CMAKE\SHARE\CMAKE-3.1\MODULES\PLATFORM\WINDOWS-CXX.CMAKE
C:\DEV\CMAKE\SHARE\CMAKE-3.1\MODULES\PLATFORM\WINDOWS-MSVC-C.CMAKE
C:\DEV\CMAKE\SHARE\CMAKE-3.1\MODULES\PLATFORM\WINDOWS-MSVC-CXX.CMAKE
C:\DEV\CMAKE\SHARE\CMAKE-3.1\MODULES\PLATFORM\WINDOWS-MSVC.CMAKE
C:\DEV\CMAKE\SHARE\CMAKE-3.1\MODULES\PLATFORM\WINDOWS.CMAKE
C:\DEV\CMAKE\SHARE\CMAKE-3.1\MODULES\PLATFORM\WINDOWSPATHS.CMAKE
