#Command:  
^D:\INFOTRAINING\SZKOLENIA\CPP-DP-2016-12-19\CREATIONAL\FACTORYMETHOD.THEORYCODE\CMAKEFILES\3.1.0\COMPILERIDC\DEBUG\CMAKECCOMPILERID.OBJ
C:\PROGRAMDATA\VSTELEMETRY\DEFAULT\DEFAULT.MANIFEST.JSON
