#Command:  
^D:\INFOTRAINING\SZKOLENIA\CPP-DP-2016-12-19\CREATIONAL\FACTORYMETHOD.THEORYCODE\CMAKEFILES\3.1.0\COMPILERIDC\DEBUG\CMAKECCOMPILERID.OBJ
C:\USERS\KRYSTIAN\APPDATA\LOCAL\MICROSOFT\APPLICATIONINSIGHTS\VSTELAIF-312CBD79-9DBB-4C48-A7DA-3CC2A931CB70\20161219085843_92DD7235A6A745DAB24289FC32E115BF.TRN
C:\USERS\KRYSTIAN\APPDATA\LOCAL\MICROSOFT\CLR_V4.0_32\USAGELOGS\VCTIP.EXE.LOG
